ISD/P1113/simulation/qsim/SeqDet1101.msim.vcd
$comment
	File created using the following command:
		vcd file SeqDet1101.msim.vcd -direction
$end
$date
	Sat Jan 22 18:50:54 2022
$end
$version
	ModelSim Version 2020.1
$end
$timescale
	1ps
$end

$scope module seqdet1101_vhd_vec_tst $end
$var wire 1 ! CLK $end
$var wire 1 " X $end
$var wire 1 # Y $end

$scope module i1 $end
$var wire 1 $ gnd $end
$var wire 1 % vcc $end
$var wire 1 & unknown $end
$var wire 1 ' devoe $end
$var wire 1 ( devclrn $end
$var wire 1 ) devpor $end
$var wire 1 * ww_devoe $end
$var wire 1 + ww_devclrn $end
$var wire 1 , ww_devpor $end
$var wire 1 - ww_Y $end
$var wire 1 . ww_X $end
$var wire 1 / ww_CLK $end
$var wire 1 0 \Y~output_o\ $end
$var wire 1 1 \X~input_o\ $end
$var wire 1 2 \CLK~input_o\ $end
$var wire 1 3 \Q0~q\ $end
$var wire 1 4 \inst9~0_combout\ $end
$var wire 1 5 \Q1~q\ $end
$var wire 1 6 \inst17~0_combout\ $end
$upscope $end
$upscope $end
$enddefinitions $end
#0
$dumpvars
0!
0"
0#
0$
1%
x&
1'
1(
1)
1*
1+
1,
0-
0.
0/
00
01
02
03
04
05
06
$end
#20000
1!
1/
12
#30000
1"
1.
11
#40000
0!
0/
02
#60000
1!
1/
12
13
14
#70000
0"
0.
01
04
#80000
0!
0/
02
#100000
1!
1/
12
03
#110000
1"
1.
11
#120000
0!
0/
02
#140000
1!
1/
12
13
14
#160000
0!
0/
02
#180000
1!
1/
12
15
#200000
0!
0/
02
#220000
1!
1/
12
#230000
0"
0.
01
#240000
0!
0/
02
#260000
1!
1/
12
03
04
#270000
1"
1.
11
16
10
1-
1#
#280000
0!
0/
02
#300000
1!
1/
12
13
05
14
06
00
0-
0#
#320000
0!
0/
02
#340000
1!
1/
12
15
#350000
0"
0.
01
#360000
0!
0/
02
#380000
1!
1/
12
03
04
#390000
1"
1.
11
16
10
1-
1#
#400000
0!
0/
02
#420000
1!
1/
12
13
05
14
06
00
0-
0#
#430000
0"
0.
01
04
#440000
0!
0/
02
#460000
1!
1/
12
03
#470000
1"
1.
11
#480000
0!
0/
02
#500000
1!
1/
12
13
14
#520000
0!
0/
02
#540000
1!
1/
12
15
#550000
0"
0.
01
#560000
0!
0/
02
#580000
1!
1/
12
03
04
#600000
0!
0/
02
#620000
1!
1/
12
05
#640000
0!
0/
02
#660000
1!
1/
12
#680000
0!
0/
02
#700000
1!
1/
12
#720000
0!
0/
02
#740000
1!
1/
12
#760000
0!
0/
02
#780000
1!
1/
12
#800000
0!
0/
02
#820000
1!
1/
12
#840000
0!
0/
02
#860000
1!
1/
12
#880000
0!
0/
02
#900000
1!
1/
12
#920000
0!
0/
02
#940000
1!
1/
12
#960000
0!
0/
02
#980000
1!
1/
12
