1semestre/ISD/P1113/simulation/qsim/SeqDet3in5.msim.vcd
$comment
	File created using the following command:
		vcd file SeqDet3in5.msim.vcd -direction
$end
$date
	Sat Jan 22 23:46:11 2022
$end
$version
	ModelSim Version 2020.1
$end
$timescale
	1ps
$end

$scope module seqdet3in5_vhd_vec_tst $end
$var wire 1 ! CLK $end
$var wire 1 " X $end
$var wire 1 # Y $end

$scope module i1 $end
$var wire 1 $ gnd $end
$var wire 1 % vcc $end
$var wire 1 & unknown $end
$var wire 1 ' devoe $end
$var wire 1 ( devclrn $end
$var wire 1 ) devpor $end
$var wire 1 * ww_devoe $end
$var wire 1 + ww_devclrn $end
$var wire 1 , ww_devpor $end
$var wire 1 - ww_Y $end
$var wire 1 . ww_X $end
$var wire 1 / ww_CLK $end
$var wire 1 0 \Y~output_o\ $end
$var wire 1 1 \X~input_o\ $end
$var wire 1 2 \CLK~input_o\ $end
$var wire 1 3 \inst12~0_combout\ $end
$var wire 1 4 \Q0~q\ $end
$var wire 1 5 \inst11~combout\ $end
$var wire 1 6 \Q1~q\ $end
$var wire 1 7 \inst91~0_combout\ $end
$var wire 1 8 \Q2~q\ $end
$var wire 1 9 \inst3~0_combout\ $end
$upscope $end
$upscope $end
$enddefinitions $end
#0
$dumpvars
0!
1"
0#
0$
1%
x&
1'
1(
1)
1*
1+
1,
0-
1.
0/
00
11
02
13
04
05
06
07
08
09
$end
#30000
1!
0"
1/
0.
01
12
14
03
#60000
0!
0/
02
#90000
1!
1"
1/
1.
11
12
04
13
#120000
0!
0/
02
#150000
1!
0"
1/
0.
01
12
14
03
#180000
0!
1"
0/
1.
11
02
13
#210000
1!
1/
12
#240000
0!
0"
0/
0.
01
02
03
#270000
1!
1/
12
04
#300000
0!
1"
0/
1.
11
02
13
#330000
1!
1/
12
14
#360000
0!
0"
0/
0.
01
02
03
#390000
1!
1"
1/
1.
11
12
04
13
#420000
0!
0"
0/
0.
01
02
03
#450000
1!
1/
12
#480000
0!
0/
02
#510000
1!
1/
12
#540000
0!
0/
02
#570000
1!
1/
12
#600000
0!
0/
02
#630000
1!
1/
12
#660000
0!
0/
02
#690000
1!
1/
12
#720000
0!
0/
02
#750000
1!
1/
12
#780000
0!
0/
02
#810000
1!
1/
12
#840000
0!
0/
02
#870000
1!
1/
12
#900000
0!
0/
02
#930000
1!
1/
12
#960000
0!
0/
02
#990000
1!
1/
12
