1º SEMESTRE/ISD/P6/Part1 and 2/simulation/qsim/Dec4_16.msim.vcd
$comment
	File created using the following command:
		vcd file Dec4_16.msim.vcd -direction
$end
$date
	Sat Dec 04 16:44:49 2021
$end
$version
	ModelSim Version 2020.1
$end
$timescale
	1ps
$end

$scope module dec4_16_vhd_vec_tst $end
$var wire 1 ! e0 $end
$var wire 1 " e1 $end
$var wire 1 # x0 $end
$var wire 1 $ x1 $end
$var wire 1 % x2 $end
$var wire 1 & x3 $end
$var wire 1 ' y0 $end
$var wire 1 ( y1 $end
$var wire 1 ) y2 $end
$var wire 1 * y3 $end
$var wire 1 + y4 $end
$var wire 1 , y5 $end
$var wire 1 - y6 $end
$var wire 1 . y7 $end
$var wire 1 / y8 $end
$var wire 1 0 y9 $end
$var wire 1 1 y10 $end
$var wire 1 2 y11 $end
$var wire 1 3 y12 $end
$var wire 1 4 y13 $end
$var wire 1 5 y14 $end
$var wire 1 6 y15 $end

$scope module i1 $end
$var wire 1 7 gnd $end
$var wire 1 8 vcc $end
$var wire 1 9 unknown $end
$var wire 1 : devoe $end
$var wire 1 ; devclrn $end
$var wire 1 < devpor $end
$var wire 1 = ww_devoe $end
$var wire 1 > ww_devclrn $end
$var wire 1 ? ww_devpor $end
$var wire 1 @ ww_y15 $end
$var wire 1 A ww_x0 $end
$var wire 1 B ww_x2 $end
$var wire 1 C ww_e1 $end
$var wire 1 D ww_e0 $end
$var wire 1 E ww_x3 $end
$var wire 1 F ww_x1 $end
$var wire 1 G ww_y14 $end
$var wire 1 H ww_y13 $end
$var wire 1 I ww_y12 $end
$var wire 1 J ww_y11 $end
$var wire 1 K ww_y10 $end
$var wire 1 L ww_y9 $end
$var wire 1 M ww_y8 $end
$var wire 1 N ww_y6 $end
$var wire 1 O ww_y7 $end
$var wire 1 P ww_y5 $end
$var wire 1 Q ww_y4 $end
$var wire 1 R ww_y3 $end
$var wire 1 S ww_y2 $end
$var wire 1 T ww_y1 $end
$var wire 1 U ww_y0 $end
$var wire 1 V \y15~output_o\ $end
$var wire 1 W \y14~output_o\ $end
$var wire 1 X \y13~output_o\ $end
$var wire 1 Y \y12~output_o\ $end
$var wire 1 Z \y11~output_o\ $end
$var wire 1 [ \y10~output_o\ $end
$var wire 1 \ \y9~output_o\ $end
$var wire 1 ] \y8~output_o\ $end
$var wire 1 ^ \y6~output_o\ $end
$var wire 1 _ \y7~output_o\ $end
$var wire 1 ` \y5~output_o\ $end
$var wire 1 a \y4~output_o\ $end
$var wire 1 b \y3~output_o\ $end
$var wire 1 c \y2~output_o\ $end
$var wire 1 d \y1~output_o\ $end
$var wire 1 e \y0~output_o\ $end
$var wire 1 f \x3~input_o\ $end
$var wire 1 g \x2~input_o\ $end
$var wire 1 h \e1~input_o\ $end
$var wire 1 i \e0~input_o\ $end
$var wire 1 j \inst4|inst5~combout\ $end
$var wire 1 k \x0~input_o\ $end
$var wire 1 l \x1~input_o\ $end
$var wire 1 m \inst|inst5~combout\ $end
$var wire 1 n \inst|inst8~combout\ $end
$var wire 1 o \inst|inst7~combout\ $end
$var wire 1 p \inst|inst6~combout\ $end
$var wire 1 q \inst4|inst8~combout\ $end
$var wire 1 r \inst1|inst5~combout\ $end
$var wire 1 s \inst1|inst8~combout\ $end
$var wire 1 t \inst1|inst7~combout\ $end
$var wire 1 u \inst1|inst6~combout\ $end
$var wire 1 v \inst4|inst7~combout\ $end
$var wire 1 w \inst2|inst8~combout\ $end
$var wire 1 x \inst2|inst5~combout\ $end
$var wire 1 y \inst2|inst7~combout\ $end
$var wire 1 z \inst2|inst6~combout\ $end
$var wire 1 { \inst4|inst6~combout\ $end
$var wire 1 | \inst3|inst5~combout\ $end
$var wire 1 } \inst3|inst8~combout\ $end
$var wire 1 ~ \inst3|inst7~combout\ $end
$var wire 1 !! \inst3|inst6~combout\ $end
$upscope $end
$upscope $end
$enddefinitions $end
#0
$dumpvars
0!
1"
0#
0$
0%
0&
1'
0(
0)
0*
0+
0,
0-
0.
0/
00
01
02
03
04
05
06
07
18
x9
1:
1;
1<
1=
1>
1?
0@
0A
0B
1C
0D
0E
0F
0G
0H
0I
0J
0K
0L
0M
0N
0O
0P
0Q
0R
0S
0T
1U
0V
0W
0X
0Y
0Z
0[
0\
0]
0^
0_
0`
0a
0b
0c
0d
1e
0f
0g
1h
0i
0j
0k
0l
0m
0n
0o
0p
0q
0r
0s
0t
0u
0v
0w
0x
0y
0z
1{
0|
0}
0~
1!!
$end
#62500
1#
1A
1k
1~
0!!
0e
1d
0U
1T
0'
1(
#125000
0#
1$
0A
1F
1l
0k
1}
0~
0d
1c
0T
1S
0(
1)
#187500
1#
1A
1k
1|
0}
0c
1b
0S
1R
0)
1*
#250000
0#
0$
1%
0A
0F
1B
1g
0l
0k
0|
1!!
1v
0{
0!!
1z
1e
0b
1U
0R
1a
0e
1'
0*
1Q
0U
1+
0'
#312500
1#
1A
1k
1y
0z
0a
1`
0Q
1P
0+
1,
#375000
0#
1$
0A
1F
1l
0k
1w
0y
0`
1^
0P
1N
0,
1-
#437500
1#
1A
1k
0w
1x
1_
0^
1O
0N
1.
0-
#500000
0#
0$
0%
1&
0A
0F
0B
1E
1f
0g
0l
0k
0x
1z
1q
0v
0z
1u
1a
0_
1Q
0O
1]
0a
1+
0.
1M
0Q
1/
0+
#562500
1#
1A
1k
1t
0u
0]
1\
0M
1L
0/
10
#625000
0#
1$
0A
1F
1l
0k
1s
0t
0\
1[
0L
1K
00
11
#687500
1#
1A
1k
1r
0s
0[
1Z
0K
1J
01
12
#750000
0#
0$
1%
0A
0F
1B
1g
0l
0k
0r
1u
1j
0q
0u
1p
1]
0Z
1M
0J
1Y
0]
1/
02
1I
0M
13
0/
#812500
1#
1A
1k
1o
0p
0Y
1X
0I
1H
03
14
#875000
0#
1$
0A
1F
1l
0k
1n
0o
0X
1W
0H
1G
04
15
#937500
1#
1A
1k
1m
0n
0W
1V
0G
1@
05
16
