ISD/P7/simulation/qsim/Mux74157.msim.vcd
$comment
	File created using the following command:
		vcd file Mux74157.msim.vcd -direction
$end
$date
	Tue Dec 07 15:42:13 2021
$end
$version
	ModelSim Version 2020.1
$end
$timescale
	1ps
$end

$scope module mux74157funcao_vhd_vec_tst $end
$var wire 1 ! A $end
$var wire 1 " B $end
$var wire 1 # C $end
$var wire 1 $ D $end
$var wire 1 % f $end

$scope module i1 $end
$var wire 1 & gnd $end
$var wire 1 ' vcc $end
$var wire 1 ( unknown $end
$var wire 1 ) devoe $end
$var wire 1 * devclrn $end
$var wire 1 + devpor $end
$var wire 1 , ww_devoe $end
$var wire 1 - ww_devclrn $end
$var wire 1 . ww_devpor $end
$var wire 1 / ww_f $end
$var wire 1 0 ww_A $end
$var wire 1 1 ww_B $end
$var wire 1 2 ww_C $end
$var wire 1 3 ww_D $end
$var wire 1 4 \f~output_o\ $end
$var wire 1 5 \A~input_o\ $end
$var wire 1 6 \B~input_o\ $end
$var wire 1 7 \C~input_o\ $end
$var wire 1 8 \D~input_o\ $end
$var wire 1 9 \ins99|inst4|22~0_combout\ $end
$upscope $end
$upscope $end
$enddefinitions $end
#0
$dumpvars
0!
0"
0#
0$
0%
0&
1'
x(
1)
1*
1+
1,
1-
1.
0/
00
01
02
03
04
05
06
07
08
09
$end
#62800
1$
13
18
19
14
1/
1%
#125600
0$
1#
03
12
17
08
#188400
1$
13
18
#251200
0$
0#
1"
03
02
11
16
07
08
#314000
1$
13
18
#376800
0$
1#
03
12
17
08
#439600
1$
13
18
09
04
0/
0%
#502400
0$
0#
0"
1!
03
02
01
10
15
06
07
08
19
14
1/
1%
#565200
1$
13
18
#628000
0$
1#
03
12
17
08
#690800
1$
13
18
#753600
0$
0#
1"
03
02
11
16
07
08
#816400
1$
13
18
#879200
0$
1#
03
12
17
08
#942000
1$
13
18
