ISD/P7/simulation/qsim/MuxDemo.msim.vcd
$comment
	File created using the following command:
		vcd file MuxDemo.msim.vcd -direction
$end
$date
	Sun Dec 05 17:37:26 2021
$end
$version
	ModelSim Version 2020.1
$end
$timescale
	1ps
$end

$scope module MuxDemo3_vlg_vec_tst $end
$var reg 1 ! LOGIC0 $end
$var reg 1 " LOGIC1 $end
$var reg 1 # S0 $end
$var reg 1 $ S1 $end
$var reg 1 % S2 $end
$var reg 1 & S3 $end
$var wire 1 ' Y $end

$scope module i1 $end
$var wire 1 ( gnd $end
$var wire 1 ) vcc $end
$var wire 1 * unknown $end
$var tri1 1 + devclrn $end
$var tri1 1 , devpor $end
$var tri1 1 - devoe $end
$var wire 1 . Y~output_o $end
$var wire 1 / LOGIC0~input_o $end
$var wire 1 0 LOGIC1~input_o $end
$var wire 1 1 S2~input_o $end
$var wire 1 2 S0~input_o $end
$var wire 1 3 S1~input_o $end
$var wire 1 4 S3~input_o $end
$var wire 1 5 inst|inst14|inst4~0_combout $end
$var wire 1 6 inst|inst14|inst4~1_combout $end
$upscope $end
$upscope $end
$enddefinitions $end
#0
$dumpvars
0!
1"
0#
0$
0%
0&
1'
0(
1)
x*
1+
1,
1-
1.
0/
10
01
02
03
04
05
16
$end
#62500
1#
12
#125000
1$
0#
13
02
#187500
1#
12
#250000
1%
0$
0#
11
03
02
#312500
1#
12
#375000
1$
0#
13
02
#437500
1#
12
15
06
0.
0'
#500000
1&
0%
0$
0#
14
01
03
02
05
16
1.
1'
#562500
1#
12
#625000
1$
0#
13
02
#687500
1#
12
#750000
1%
0$
0#
11
03
02
#812500
1#
12
#875000
1$
0#
13
02
#937500
1#
12
